EESchema Schematic File Version 4
EELAYER 30 0
EELAYER END
$Descr USLetter 11000 8500
encoding utf-8
Sheet 1 1
Title "Clock Generator"
Date "2020-02-03"
Rev "1"
Comp "Harmon Instruments"
Comment1 ""
Comment2 ""
Comment3 ""
Comment4 ""
$EndDescr
$Comp
L Device:Ferrite_Bead_Small FB1
U 1 1 631BFAE8
P 5250 5000
F 0 "FB1" V 5013 5000 50  0000 C CNN
F 1 "fb0402" V 5104 5000 50  0000 C CNN
F 2 "kicad_pcb:L_0402_1005Metric" V 5180 5000 50  0001 C CNN
F 3 "~" H 5250 5000 50  0001 C CNN
	1    5250 5000
	0    -1   1    0   
$EndComp
$Comp
L misc:tooling_hole TH3
U 1 1 5BBD5C94
P 750 7050
F 0 "TH3" H 850 7050 50  0000 L CNN
F 1 "tooling_hole" H 900 7050 50  0001 L CNN
F 2 "kicad_pcb:tooling_hole_2.55" H 900 7150 50  0001 L CNN
F 3 "" V 950 7250 50  0001 C CNN
	1    750  7050
	1    0    0    -1  
$EndComp
$Comp
L misc:tooling_hole TH4
U 1 1 5BBD5C9A
P 750 7200
F 0 "TH4" H 850 7200 50  0000 L CNN
F 1 "tooling_hole" H 900 7200 50  0001 L CNN
F 2 "kicad_pcb:tooling_hole_2.55" H 900 7300 50  0001 L CNN
F 3 "" V 950 7400 50  0001 C CNN
	1    750  7200
	1    0    0    -1  
$EndComp
Wire Wire Line
	5000 3350 5000 3400
$Comp
L power:PWR_FLAG #FLG?
U 1 1 5E40CC34
P 1700 4050
AR Path="/5C2CDB08/5E40CC34" Ref="#FLG?"  Part="1" 
AR Path="/5E374CB3/5E40CC34" Ref="#FLG?"  Part="1" 
AR Path="/5E40CC34" Ref="#FLG0102"  Part="1" 
F 0 "#FLG0102" H 1700 4125 50  0001 C CNN
F 1 "PWR_FLAG" V 1700 4350 50  0000 C CNN
F 2 "" H 1700 4050 50  0001 C CNN
F 3 "~" H 1700 4050 50  0001 C CNN
	1    1700 4050
	1    0    0    -1  
$EndComp
$Comp
L combined:ground #PWR?
U 1 1 5E40CC3A
P 1700 4050
AR Path="/5C2CDB08/5E40CC3A" Ref="#PWR?"  Part="1" 
AR Path="/5E374CB3/5E40CC3A" Ref="#PWR?"  Part="1" 
AR Path="/5E40CC3A" Ref="#PWR0102"  Part="1" 
F 0 "#PWR0102" H 1700 4050 50  0001 C CNN
F 1 "ground" H 1700 3980 50  0001 C CNN
F 2 "" H 1700 4050 50  0001 C CNN
F 3 "" H 1700 4050 50  0000 C CNN
	1    1700 4050
	1    0    0    -1  
$EndComp
$Comp
L combined:ground #PWR?
U 1 1 5E40CC40
P 5000 3850
AR Path="/5C2CDB08/5E40CC40" Ref="#PWR?"  Part="1" 
AR Path="/5E374CB3/5E40CC40" Ref="#PWR?"  Part="1" 
AR Path="/5E40CC40" Ref="#PWR0103"  Part="1" 
F 0 "#PWR0103" H 5000 3850 50  0001 C CNN
F 1 "ground" H 5000 3780 50  0001 C CNN
F 2 "" H 5000 3850 50  0001 C CNN
F 3 "" H 5000 3850 50  0000 C CNN
	1    5000 3850
	1    0    0    -1  
$EndComp
Wire Wire Line
	5000 3800 5000 3850
$Comp
L power:+3V8 #PWR0105
U 1 1 5E40CC5B
P 3150 3350
AR Path="/5E40CC5B" Ref="#PWR0105"  Part="1" 
AR Path="/5C2CDB08/5E40CC5B" Ref="#PWR?"  Part="1" 
F 0 "#PWR0105" H 3150 3200 50  0001 C CNN
F 1 "+3V8" H 3165 3523 50  0000 C CNN
F 2 "" H 3150 3350 50  0001 C CNN
F 3 "" H 3150 3350 50  0001 C CNN
	1    3150 3350
	1    0    0    -1  
$EndComp
Wire Wire Line
	3150 3350 3150 3400
Wire Wire Line
	3200 3400 3150 3400
$Comp
L combined:ground #PWR?
U 1 1 5E40CC72
P 3600 3800
AR Path="/5C2CDB08/5E40CC72" Ref="#PWR?"  Part="1" 
AR Path="/5E374CB3/5E40CC72" Ref="#PWR?"  Part="1" 
AR Path="/5E40CC72" Ref="#PWR0106"  Part="1" 
F 0 "#PWR0106" H 3600 3800 50  0001 C CNN
F 1 "ground" H 3600 3730 50  0001 C CNN
F 2 "" H 3600 3800 50  0001 C CNN
F 3 "" H 3600 3800 50  0000 C CNN
	1    3600 3800
	1    0    0    -1  
$EndComp
$Comp
L power:+3V3 #PWR?
U 1 1 5E40CC78
P 5000 3350
AR Path="/5C2CDB08/5E40CC78" Ref="#PWR?"  Part="1" 
AR Path="/5E40CC78" Ref="#PWR0108"  Part="1" 
F 0 "#PWR0108" H 5000 3200 50  0001 C CNN
F 1 "+3V3" H 5015 3523 50  0000 C CNN
F 2 "" H 5000 3350 50  0001 C CNN
F 3 "" H 5000 3350 50  0001 C CNN
	1    5000 3350
	1    0    0    -1  
$EndComp
Wire Wire Line
	3150 3400 3150 3600
Wire Wire Line
	3150 3600 3200 3600
Connection ~ 3150 3400
$Comp
L misc:BWQDQ S1
U 1 1 5E4F7D90
P 2200 6800
F 0 "S1" H 2830 7043 50  0000 L CNN
F 1 "BWQDQ" H 2400 6800 50  0001 L CNN
F 2 "kicad_pcb:Laird_Technologies_BMI-S-209-F_29.36x18.50mm" H 2400 6900 50  0001 L CNN
F 3 "$PARTS/BWQDQ/drawing.pdf" V 2450 6750 50  0001 C CNN
	1    2200 6800
	1    0    0    -1  
$EndComp
$Comp
L combined:ground #PWR?
U 1 1 5E4F863A
P 2200 6900
AR Path="/5CDB68FA/5E4F863A" Ref="#PWR?"  Part="1" 
AR Path="/5DFE1F9E/5E4F863A" Ref="#PWR?"  Part="1" 
AR Path="/5E4F863A" Ref="#PWR0113"  Part="1" 
F 0 "#PWR0113" H 2200 6900 50  0001 C CNN
F 1 "ground" H 2200 6830 50  0001 C CNN
F 2 "" H 2200 6900 50  0001 C CNN
F 3 "" H 2200 6900 50  0000 C CNN
	1    2200 6900
	-1   0    0    -1  
$EndComp
Text Label 1800 4650 0    50   ~ 0
~RST
$Comp
L power:PWR_FLAG #FLG?
U 1 1 5E93B301
P 2900 3400
AR Path="/5C2CDB08/5E93B301" Ref="#FLG?"  Part="1" 
AR Path="/5E374CB3/5E93B301" Ref="#FLG?"  Part="1" 
AR Path="/5E93B301" Ref="#FLG0103"  Part="1" 
F 0 "#FLG0103" H 2900 3475 50  0001 C CNN
F 1 "PWR_FLAG" V 2900 3700 50  0000 C CNN
F 2 "" H 2900 3400 50  0001 C CNN
F 3 "~" H 2900 3400 50  0001 C CNN
	1    2900 3400
	1    0    0    -1  
$EndComp
$Comp
L capacitors:capacitor_0603 C15
U 1 1 5E998044
P 2800 3600
F 0 "C15" H 2935 3646 50  0000 L CNN
F 1 "10 uF" H 2935 3555 50  0000 L CNN
F 2 "kicad_pcb:C_0805_2012Metric" H 2950 3500 50  0001 L CNN
F 3 "" H 2800 3600 50  0000 C CNN
	1    2800 3600
	1    0    0    -1  
$EndComp
$Comp
L combined:ground #PWR?
U 1 1 5E998B4A
P 2800 3800
AR Path="/5C2CDB08/5E998B4A" Ref="#PWR?"  Part="1" 
AR Path="/5E374CB3/5E998B4A" Ref="#PWR?"  Part="1" 
AR Path="/5E998B4A" Ref="#PWR0112"  Part="1" 
F 0 "#PWR0112" H 2800 3800 50  0001 C CNN
F 1 "ground" H 2800 3730 50  0001 C CNN
F 2 "" H 2800 3800 50  0001 C CNN
F 3 "" H 2800 3800 50  0000 C CNN
	1    2800 3800
	1    0    0    -1  
$EndComp
Wire Wire Line
	3150 3400 2900 3400
Connection ~ 2800 3400
Wire Wire Line
	2800 3400 2750 3400
Connection ~ 2900 3400
Wire Wire Line
	2900 3400 2800 3400
Text Label 1650 3400 0    50   ~ 0
3V8I
$Comp
L misc:6H67G Fl1
U 1 1 5EC6399D
P 2400 3400
F 0 "Fl1" H 2400 3523 50  0000 C CNN
F 1 "6H67G" H 2200 3500 50  0001 L BNN
F 2 "kicad_pcb:NFE31" H 2400 3400 50  0001 L BNN
F 3 "$PARTS/6H67G/NFE31PT222Z1E9#.pdf" H 2400 3400 50  0001 L BNN
	1    2400 3400
	1    0    0    -1  
$EndComp
$Comp
L combined:ground #PWR?
U 1 1 5EC9F231
P 2400 3600
AR Path="/5C2CDB08/5EC9F231" Ref="#PWR?"  Part="1" 
AR Path="/5E374CB3/5EC9F231" Ref="#PWR?"  Part="1" 
AR Path="/5EC9F231" Ref="#PWR0128"  Part="1" 
F 0 "#PWR0128" H 2400 3600 50  0001 C CNN
F 1 "ground" H 2400 3530 50  0001 C CNN
F 2 "" H 2400 3600 50  0001 C CNN
F 3 "" H 2400 3600 50  0000 C CNN
	1    2400 3600
	1    0    0    -1  
$EndComp
$Comp
L ic:RV4PP U2
U 1 1 5F2CEB6F
P 3500 1600
F 0 "U2" H 3000 2250 50  0000 L CNN
F 1 "RV4PP" H 3750 2250 50  0000 L CNN
F 2 "kicad_pcb:TSSOP-16_4.4x5mm_P0.65mm" H 3500 1700 50  0001 C CNN
F 3 "$PARTS/RV4PP/ADF4002.pdf" H 3500 1600 50  0001 C CNN
	1    3500 1600
	1    0    0    -1  
$EndComp
$Comp
L ic:XH7FM U3
U 1 1 5F2D3386
P 2600 5150
F 0 "U3" H 2250 5800 50  0000 C CNN
F 1 "XH7FM" H 2900 5800 50  0000 C CNN
F 2 "kicad_pcb:TSSOP-20_4.4x6.5mm_P0.65mm" H 2200 4450 50  0001 R CNN
F 3 "${PARTS}/XH7FM/STM32F030DS.pdf" H 2600 5150 50  0001 C CNN
	1    2600 5150
	1    0    0    -1  
$EndComp
$Comp
L ic:YBY6C U4
U 1 1 5F2D812D
P 6000 1100
F 0 "U4" H 6300 1348 50  0000 C CNN
F 1 "YBY6C" H 6300 1257 50  0000 C CNN
F 2 "kicad_pcb:Oscillator_SMD_Crystek_CVHD_4Pin_9x14mm" H 6300 1150 50  0001 L CNN
F 3 "$PARTS/YBY6C/CVHD-950.pdf" V 6250 1100 50  0001 C CNN
	1    6000 1100
	1    0    0    -1  
$EndComp
$Comp
L ic:368BR U5
U 1 1 5F2DE63F
P 8200 1000
F 0 "U5" H 8200 1050 50  0000 L CNN
F 1 "368BR" H 8550 1050 50  0000 L CNN
F 2 "kicad_pcb:SOT-353_SC-70-5" H 8850 950 50  0001 L CNN
F 3 "$PARTS/368BR/NC7SZU04-96290.pdf" V 8450 1000 50  0001 C CNN
	1    8200 1000
	1    0    0    -1  
$EndComp
Wire Wire Line
	1250 3400 2050 3400
Text Label 2600 1800 0    50   ~ 0
~CS
Wire Wire Line
	2600 1800 2900 1800
Text Label 2600 1700 0    50   ~ 0
SDATA
Wire Wire Line
	2600 1700 2900 1700
Text Label 2600 1600 0    50   ~ 0
SCK
Wire Wire Line
	2600 1600 2900 1600
$Comp
L connector:SWD P2
U 1 1 5F31DE08
P 3700 5550
F 0 "P2" H 4028 5346 50  0000 L CNN
F 1 "SWD" H 4028 5255 50  0000 L CNN
F 2 "Connector_Hirose:Hirose_DF13-04P-1.25DSA_1x04_P1.25mm_Vertical" H 3700 5600 50  0001 L CNN
F 3 "" V 3950 5550 50  0000 C CNN
	1    3700 5550
	1    0    0    -1  
$EndComp
$Comp
L connector:MYM7D P1
U 1 1 5F323A2F
P 1150 3300
F 0 "P1" H 1242 3373 50  0000 C CNN
F 1 "MYM7D" H 1150 3450 50  0001 L CNN
F 2 "kicad_pcb:JST_PA_B02B-PASK_1x02_P2.00mm_Vertical" H 1150 3350 50  0001 L CNN
F 3 "${PARTS}/MYM7D/PA.pdf" V 1400 3300 50  0001 C CNN
	1    1150 3300
	-1   0    0    -1  
$EndComp
$Comp
L combined:ground #PWR?
U 1 1 5F324EE0
P 1300 3550
AR Path="/5C2CDB08/5F324EE0" Ref="#PWR?"  Part="1" 
AR Path="/5E374CB3/5F324EE0" Ref="#PWR?"  Part="1" 
AR Path="/5F324EE0" Ref="#PWR0101"  Part="1" 
F 0 "#PWR0101" H 1300 3550 50  0001 C CNN
F 1 "ground" H 1300 3480 50  0001 C CNN
F 2 "" H 1300 3550 50  0001 C CNN
F 3 "" H 1300 3550 50  0000 C CNN
	1    1300 3550
	1    0    0    -1  
$EndComp
Wire Wire Line
	1250 3500 1300 3500
Wire Wire Line
	1300 3500 1300 3550
$Comp
L combined:ground #PWR?
U 1 1 5F334DA0
P 2450 5950
AR Path="/5C2CDB08/5F334DA0" Ref="#PWR?"  Part="1" 
AR Path="/5E374CB3/5F334DA0" Ref="#PWR?"  Part="1" 
AR Path="/5F334DA0" Ref="#PWR0104"  Part="1" 
F 0 "#PWR0104" H 2450 5950 50  0001 C CNN
F 1 "ground" H 2450 5880 50  0001 C CNN
F 2 "" H 2450 5950 50  0001 C CNN
F 3 "" H 2450 5950 50  0000 C CNN
	1    2450 5950
	1    0    0    -1  
$EndComp
$Comp
L combined:ground #PWR?
U 1 1 5F3355EA
P 3700 2300
AR Path="/5C2CDB08/5F3355EA" Ref="#PWR?"  Part="1" 
AR Path="/5E374CB3/5F3355EA" Ref="#PWR?"  Part="1" 
AR Path="/5F3355EA" Ref="#PWR0107"  Part="1" 
F 0 "#PWR0107" H 3700 2300 50  0001 C CNN
F 1 "ground" H 3700 2230 50  0001 C CNN
F 2 "" H 3700 2300 50  0001 C CNN
F 3 "" H 3700 2300 50  0000 C CNN
	1    3700 2300
	1    0    0    -1  
$EndComp
$Comp
L combined:ground #PWR?
U 1 1 5F335B46
P 3500 2300
AR Path="/5C2CDB08/5F335B46" Ref="#PWR?"  Part="1" 
AR Path="/5E374CB3/5F335B46" Ref="#PWR?"  Part="1" 
AR Path="/5F335B46" Ref="#PWR0111"  Part="1" 
F 0 "#PWR0111" H 3500 2300 50  0001 C CNN
F 1 "ground" H 3500 2230 50  0001 C CNN
F 2 "" H 3500 2300 50  0001 C CNN
F 3 "" H 3500 2300 50  0000 C CNN
	1    3500 2300
	1    0    0    -1  
$EndComp
$Comp
L combined:ground #PWR?
U 1 1 5F33602C
P 3300 2300
AR Path="/5C2CDB08/5F33602C" Ref="#PWR?"  Part="1" 
AR Path="/5E374CB3/5F33602C" Ref="#PWR?"  Part="1" 
AR Path="/5F33602C" Ref="#PWR0122"  Part="1" 
F 0 "#PWR0122" H 3300 2300 50  0001 C CNN
F 1 "ground" H 3300 2230 50  0001 C CNN
F 2 "" H 3300 2300 50  0001 C CNN
F 3 "" H 3300 2300 50  0000 C CNN
	1    3300 2300
	1    0    0    -1  
$EndComp
$Comp
L resistor:resistor_0402 R?
U 1 1 5F338874
P 2850 2400
AR Path="/5C2CDB08/5F338874" Ref="R?"  Part="1" 
AR Path="/5E374CB3/5F338874" Ref="R?"  Part="1" 
AR Path="/5F338874" Ref="R2"  Part="1" 
F 0 "R2" V 2750 2400 50  0000 C CNN
F 1 "4.99 k" V 2850 2400 50  0000 C CNN
F 2 "kicad_pcb:R_0402_1005Metric" V 2750 2200 50  0001 C CNN
F 3 "" H 2850 2400 50  0000 C CNN
	1    2850 2400
	1    0    0    -1  
$EndComp
$Comp
L combined:ground #PWR?
U 1 1 5F339019
P 2850 2650
AR Path="/5C2CDB08/5F339019" Ref="#PWR?"  Part="1" 
AR Path="/5E374CB3/5F339019" Ref="#PWR?"  Part="1" 
AR Path="/5F339019" Ref="#PWR0124"  Part="1" 
F 0 "#PWR0124" H 2850 2650 50  0001 C CNN
F 1 "ground" H 2850 2580 50  0001 C CNN
F 2 "" H 2850 2650 50  0001 C CNN
F 3 "" H 2850 2650 50  0000 C CNN
	1    2850 2650
	1    0    0    -1  
$EndComp
Wire Wire Line
	2900 2100 2850 2100
Wire Wire Line
	2850 2100 2850 2150
Text Label 2900 2100 2    50   ~ 0
RSET
$Comp
L power:+3V3 #PWR?
U 1 1 5F340729
P 3300 900
AR Path="/5C2CDB08/5F340729" Ref="#PWR?"  Part="1" 
AR Path="/5F340729" Ref="#PWR0125"  Part="1" 
F 0 "#PWR0125" H 3300 750 50  0001 C CNN
F 1 "+3V3" V 3300 1100 50  0000 C CNN
F 2 "" H 3300 900 50  0001 C CNN
F 3 "" H 3300 900 50  0001 C CNN
	1    3300 900 
	1    0    0    -1  
$EndComp
$Comp
L power:+3V3 #PWR?
U 1 1 5F340D25
P 3500 900
AR Path="/5C2CDB08/5F340D25" Ref="#PWR?"  Part="1" 
AR Path="/5F340D25" Ref="#PWR0126"  Part="1" 
F 0 "#PWR0126" H 3500 750 50  0001 C CNN
F 1 "+3V3" V 3500 1100 50  0000 C CNN
F 2 "" H 3500 900 50  0001 C CNN
F 3 "" H 3500 900 50  0001 C CNN
	1    3500 900 
	1    0    0    -1  
$EndComp
$Comp
L power:+3V3 #PWR?
U 1 1 5F340FF8
P 3700 900
AR Path="/5C2CDB08/5F340FF8" Ref="#PWR?"  Part="1" 
AR Path="/5F340FF8" Ref="#PWR0127"  Part="1" 
F 0 "#PWR0127" H 3700 750 50  0001 C CNN
F 1 "+3V3" V 3700 1100 50  0000 C CNN
F 2 "" H 3700 900 50  0001 C CNN
F 3 "" H 3700 900 50  0001 C CNN
	1    3700 900 
	1    0    0    -1  
$EndComp
$Comp
L diode:QF838 D1
U 1 1 5F373AD5
P 4200 2000
F 0 "D1" V 4239 1883 50  0000 R CNN
F 1 "QF838" V 4148 1883 50  0000 R CNN
F 2 "kicad_pcb:LED_0603_1608Metric" H 4200 2000 50  0001 C CNN
F 3 "$PARTS/QF838/LG_L29K.pdf" H 4200 2000 50  0001 C CNN
	1    4200 2000
	0    -1   -1   0   
$EndComp
Wire Wire Line
	4100 1800 4200 1800
Wire Wire Line
	4200 1800 4200 1850
$Comp
L resistor:resistor_0402 R?
U 1 1 5F37B71D
P 4200 2400
AR Path="/5C2CDB08/5F37B71D" Ref="R?"  Part="1" 
AR Path="/5E374CB3/5F37B71D" Ref="R?"  Part="1" 
AR Path="/5F37B71D" Ref="R3"  Part="1" 
F 0 "R3" V 4100 2400 50  0000 C CNN
F 1 "4.99 k" V 4200 2400 50  0000 C CNN
F 2 "kicad_pcb:R_0402_1005Metric" V 4100 2200 50  0001 C CNN
F 3 "" H 4200 2400 50  0000 C CNN
	1    4200 2400
	1    0    0    1   
$EndComp
$Comp
L combined:ground #PWR?
U 1 1 5F37BD3B
P 4200 2650
AR Path="/5C2CDB08/5F37BD3B" Ref="#PWR?"  Part="1" 
AR Path="/5E374CB3/5F37BD3B" Ref="#PWR?"  Part="1" 
AR Path="/5F37BD3B" Ref="#PWR0129"  Part="1" 
F 0 "#PWR0129" H 4200 2650 50  0001 C CNN
F 1 "ground" H 4200 2580 50  0001 C CNN
F 2 "" H 4200 2650 50  0001 C CNN
F 3 "" H 4200 2650 50  0000 C CNN
	1    4200 2650
	1    0    0    -1  
$EndComp
Wire Wire Line
	3100 5750 3600 5750
Wire Wire Line
	3600 5850 3400 5850
Wire Wire Line
	3400 5850 3400 5650
Wire Wire Line
	3400 5650 3100 5650
Wire Wire Line
	3600 5650 3550 5650
Wire Wire Line
	3550 5650 3550 5600
Wire Wire Line
	3600 5950 3550 5950
Wire Wire Line
	3550 5950 3550 6000
$Comp
L combined:ground #PWR?
U 1 1 5F3C2148
P 3550 6000
AR Path="/5C2CDB08/5F3C2148" Ref="#PWR?"  Part="1" 
AR Path="/5E374CB3/5F3C2148" Ref="#PWR?"  Part="1" 
AR Path="/5F3C2148" Ref="#PWR0130"  Part="1" 
F 0 "#PWR0130" H 3550 6000 50  0001 C CNN
F 1 "ground" H 3550 5930 50  0001 C CNN
F 2 "" H 3550 6000 50  0001 C CNN
F 3 "" H 3550 6000 50  0000 C CNN
	1    3550 6000
	1    0    0    -1  
$EndComp
$Comp
L power:+3V3 #PWR?
U 1 1 5F3C399F
P 3550 5600
AR Path="/5C2CDB08/5F3C399F" Ref="#PWR?"  Part="1" 
AR Path="/5F3C399F" Ref="#PWR0131"  Part="1" 
F 0 "#PWR0131" H 3550 5450 50  0001 C CNN
F 1 "+3V3" H 3565 5773 50  0000 C CNN
F 2 "" H 3550 5600 50  0001 C CNN
F 3 "" H 3550 5600 50  0001 C CNN
	1    3550 5600
	1    0    0    -1  
$EndComp
$Comp
L capacitors:capacitor_0603 C10
U 1 1 5F3DC550
P 4400 1600
F 0 "C10" H 4535 1646 50  0000 L CNN
F 1 "100 nF" H 4535 1555 50  0000 L CNN
F 2 "kicad_pcb:C_1206_3216Metric" H 4550 1500 50  0001 L CNN
F 3 "" H 4400 1600 50  0000 C CNN
	1    4400 1600
	1    0    0    -1  
$EndComp
$Comp
L combined:ground #PWR?
U 1 1 5F3DD724
P 4400 1800
AR Path="/5C2CDB08/5F3DD724" Ref="#PWR?"  Part="1" 
AR Path="/5E374CB3/5F3DD724" Ref="#PWR?"  Part="1" 
AR Path="/5F3DD724" Ref="#PWR0132"  Part="1" 
F 0 "#PWR0132" H 4400 1800 50  0001 C CNN
F 1 "ground" H 4400 1730 50  0001 C CNN
F 2 "" H 4400 1800 50  0001 C CNN
F 3 "" H 4400 1800 50  0000 C CNN
	1    4400 1800
	1    0    0    -1  
$EndComp
Text Label 4700 1400 0    50   ~ 0
VT
$Comp
L capacitors:capacitor_0603 C11
U 1 1 5F3E29AB
P 4950 2100
F 0 "C11" H 5085 2146 50  0000 L CNN
F 1 "1 uF" H 5085 2055 50  0000 L CNN
F 2 "Capacitor_THT:C_Rect_L7.0mm_W2.5mm_P5.00mm" H 5100 2000 50  0001 L CNN
F 3 "" H 4950 2100 50  0000 C CNN
	1    4950 2100
	1    0    0    -1  
$EndComp
$Comp
L resistor:resistor_0402 R?
U 1 1 5F3E4772
P 4950 1650
AR Path="/5C2CDB08/5F3E4772" Ref="R?"  Part="1" 
AR Path="/5E374CB3/5F3E4772" Ref="R?"  Part="1" 
AR Path="/5F3E4772" Ref="R8"  Part="1" 
F 0 "R8" V 4850 1650 50  0000 C CNN
F 1 "5.6 k" V 4950 1650 50  0000 C CNN
F 2 "kicad_pcb:R_0402_1005Metric" V 4850 1450 50  0001 C CNN
F 3 "" H 4950 1650 50  0000 C CNN
	1    4950 1650
	1    0    0    1   
$EndComp
$Comp
L combined:ground #PWR?
U 1 1 5F3E477C
P 4950 2300
AR Path="/5C2CDB08/5F3E477C" Ref="#PWR?"  Part="1" 
AR Path="/5E374CB3/5F3E477C" Ref="#PWR?"  Part="1" 
AR Path="/5F3E477C" Ref="#PWR0133"  Part="1" 
F 0 "#PWR0133" H 4950 2300 50  0001 C CNN
F 1 "ground" H 4950 2230 50  0001 C CNN
F 2 "" H 4950 2300 50  0001 C CNN
F 3 "" H 4950 2300 50  0000 C CNN
	1    4950 2300
	1    0    0    -1  
$EndComp
Text Label 5750 1400 0    50   ~ 0
VT1
$Comp
L resistor:resistor_0402 R?
U 1 1 5F3F5A56
P 5300 1400
AR Path="/5C2CDB08/5F3F5A56" Ref="R?"  Part="1" 
AR Path="/5E374CB3/5F3F5A56" Ref="R?"  Part="1" 
AR Path="/5F3F5A56" Ref="R9"  Part="1" 
F 0 "R9" V 5200 1400 50  0000 C CNN
F 1 "4.99 k" V 5300 1400 50  0000 C CNN
F 2 "kicad_pcb:R_0402_1005Metric" V 5200 1200 50  0001 C CNN
F 3 "" H 5300 1400 50  0000 C CNN
	1    5300 1400
	0    -1   1    0   
$EndComp
Wire Wire Line
	5550 1400 5650 1400
$Comp
L capacitors:capacitor_0603 C13
U 1 1 5F3F62A2
P 5650 1600
F 0 "C13" H 5785 1646 50  0000 L CNN
F 1 "10 nF" H 5785 1555 50  0000 L CNN
F 2 "kicad_pcb:C_0603_1608Metric" H 5800 1500 50  0001 L CNN
F 3 "" H 5650 1600 50  0000 C CNN
	1    5650 1600
	1    0    0    -1  
$EndComp
Connection ~ 5650 1400
Wire Wire Line
	5650 1400 5900 1400
$Comp
L combined:ground #PWR?
U 1 1 5F3F6AA8
P 5650 1800
AR Path="/5C2CDB08/5F3F6AA8" Ref="#PWR?"  Part="1" 
AR Path="/5E374CB3/5F3F6AA8" Ref="#PWR?"  Part="1" 
AR Path="/5F3F6AA8" Ref="#PWR0134"  Part="1" 
F 0 "#PWR0134" H 5650 1800 50  0001 C CNN
F 1 "ground" H 5650 1730 50  0001 C CNN
F 2 "" H 5650 1800 50  0001 C CNN
F 3 "" H 5650 1800 50  0000 C CNN
	1    5650 1800
	1    0    0    -1  
$EndComp
$Comp
L combined:ground #PWR?
U 1 1 5F3F73B9
P 6750 1450
AR Path="/5C2CDB08/5F3F73B9" Ref="#PWR?"  Part="1" 
AR Path="/5E374CB3/5F3F73B9" Ref="#PWR?"  Part="1" 
AR Path="/5F3F73B9" Ref="#PWR0135"  Part="1" 
F 0 "#PWR0135" H 6750 1450 50  0001 C CNN
F 1 "ground" H 6750 1380 50  0001 C CNN
F 2 "" H 6750 1450 50  0001 C CNN
F 3 "" H 6750 1450 50  0000 C CNN
	1    6750 1450
	1    0    0    -1  
$EndComp
Wire Wire Line
	6700 1400 6750 1400
Wire Wire Line
	6750 1400 6750 1450
Wire Wire Line
	5900 1200 5850 1200
Wire Wire Line
	5850 1200 5850 1150
$Comp
L power:+3V3 #PWR?
U 1 1 5F401AE6
P 2600 4450
AR Path="/5C2CDB08/5F401AE6" Ref="#PWR?"  Part="1" 
AR Path="/5F401AE6" Ref="#PWR0137"  Part="1" 
F 0 "#PWR0137" H 2600 4300 50  0001 C CNN
F 1 "+3V3" V 2600 4650 50  0000 C CNN
F 2 "" H 2600 4450 50  0001 C CNN
F 3 "" H 2600 4450 50  0001 C CNN
	1    2600 4450
	1    0    0    -1  
$EndComp
Wire Wire Line
	2700 4450 2600 4450
Connection ~ 2600 4450
$Comp
L capacitors:capacitor_0402 C?
U 1 1 5F408917
P 1800 4850
AR Path="/5C2CDB08/5F408917" Ref="C?"  Part="1" 
AR Path="/5E374CB3/5F408917" Ref="C?"  Part="1" 
AR Path="/5F408917" Ref="C12"  Part="1" 
F 0 "C12" V 1650 4850 50  0000 C CNN
F 1 "100 nF" V 1950 4850 50  0000 C CNN
F 2 "kicad_pcb:C_0402_1005Metric" H 1950 4750 50  0001 L CNN
F 3 "" H 1800 4850 50  0000 C CNN
	1    1800 4850
	1    0    0    -1  
$EndComp
$Comp
L combined:ground #PWR?
U 1 1 5F409DFD
P 1800 5050
AR Path="/5C2CDB08/5F409DFD" Ref="#PWR?"  Part="1" 
AR Path="/5E374CB3/5F409DFD" Ref="#PWR?"  Part="1" 
AR Path="/5F409DFD" Ref="#PWR0138"  Part="1" 
F 0 "#PWR0138" H 1800 5050 50  0001 C CNN
F 1 "ground" H 1800 4980 50  0001 C CNN
F 2 "" H 1800 5050 50  0001 C CNN
F 3 "" H 1800 5050 50  0000 C CNN
	1    1800 5050
	1    0    0    -1  
$EndComp
$Comp
L combined:ground #PWR?
U 1 1 5F40A34E
P 2050 4900
AR Path="/5C2CDB08/5F40A34E" Ref="#PWR?"  Part="1" 
AR Path="/5E374CB3/5F40A34E" Ref="#PWR?"  Part="1" 
AR Path="/5F40A34E" Ref="#PWR0139"  Part="1" 
F 0 "#PWR0139" H 2050 4900 50  0001 C CNN
F 1 "ground" H 2050 4830 50  0001 C CNN
F 2 "" H 2050 4900 50  0001 C CNN
F 3 "" H 2050 4900 50  0000 C CNN
	1    2050 4900
	1    0    0    -1  
$EndComp
Wire Wire Line
	2100 4650 1800 4650
Wire Wire Line
	2100 4850 2050 4850
Wire Wire Line
	2050 4850 2050 4900
Text Label 1800 5750 0    50   ~ 0
~CS
Wire Wire Line
	1800 5750 2100 5750
Text Label 3400 5350 2    50   ~ 0
SDATA
Wire Wire Line
	3400 5350 3100 5350
Text Label 3400 5150 2    50   ~ 0
SCK
Wire Wire Line
	3400 5150 3100 5150
Wire Wire Line
	4200 3800 4600 3800
Wire Wire Line
	4000 3400 4200 3400
$Comp
L capacitors:capacitor_0402 C?
U 1 1 5F4AA5E2
P 4200 3600
AR Path="/5C2CDB08/5F4AA5E2" Ref="C?"  Part="1" 
AR Path="/5E374CB3/5F4AA5E2" Ref="C?"  Part="1" 
AR Path="/5F4AA5E2" Ref="C1"  Part="1" 
F 0 "C1" V 4050 3600 50  0000 C CNN
F 1 "1 uF" V 4350 3600 50  0000 C CNN
F 2 "kicad_pcb:C_0402_1005Metric" H 4350 3500 50  0001 L CNN
F 3 "" H 4200 3600 50  0000 C CNN
	1    4200 3600
	1    0    0    -1  
$EndComp
Connection ~ 4200 3400
Wire Wire Line
	4200 3400 4600 3400
Wire Wire Line
	7000 1200 6700 1200
$Comp
L combined:ground #PWR?
U 1 1 5F4CEF03
P 8500 1500
AR Path="/5C2CDB08/5F4CEF03" Ref="#PWR?"  Part="1" 
AR Path="/5E374CB3/5F4CEF03" Ref="#PWR?"  Part="1" 
AR Path="/5F4CEF03" Ref="#PWR0109"  Part="1" 
F 0 "#PWR0109" H 8500 1500 50  0001 C CNN
F 1 "ground" H 8500 1430 50  0001 C CNN
F 2 "" H 8500 1500 50  0001 C CNN
F 3 "" H 8500 1500 50  0000 C CNN
	1    8500 1500
	1    0    0    -1  
$EndComp
$Comp
L connector:6BPPF P3
U 1 1 5F4D119F
P 10300 1200
F 0 "P3" H 10401 1129 50  0000 L CNN
F 1 "6BPPF" H 10300 1350 50  0001 C CNN
F 2 "kicad_pcb:U.FL_Molex_MCRF_73412-0110_Vertical" H 10300 1350 50  0001 C CNN
F 3 "$PARTS/6BPPF/A-1JB.pdf" H 10300 1200 50  0001 C CNN
	1    10300 1200
	1    0    0    -1  
$EndComp
$Comp
L combined:ground #PWR?
U 1 1 5F4D37CF
P 10300 1400
AR Path="/5C2CDB08/5F4D37CF" Ref="#PWR?"  Part="1" 
AR Path="/5E374CB3/5F4D37CF" Ref="#PWR?"  Part="1" 
AR Path="/5F4D37CF" Ref="#PWR0116"  Part="1" 
F 0 "#PWR0116" H 10300 1400 50  0001 C CNN
F 1 "ground" H 10300 1330 50  0001 C CNN
F 2 "" H 10300 1400 50  0001 C CNN
F 3 "" H 10300 1400 50  0000 C CNN
	1    10300 1400
	1    0    0    -1  
$EndComp
$Comp
L capacitors:capacitor_0402 C?
U 1 1 5F4D9716
P 9950 1200
AR Path="/5C2CDB08/5F4D9716" Ref="C?"  Part="1" 
AR Path="/5E374CB3/5F4D9716" Ref="C?"  Part="1" 
AR Path="/5F4D9716" Ref="C2"  Part="1" 
F 0 "C2" V 9800 1200 50  0000 C CNN
F 1 "100 nF" V 10100 1200 50  0000 C CNN
F 2 "kicad_pcb:C_0402_1005Metric" H 10100 1100 50  0001 L CNN
F 3 "" H 9950 1200 50  0000 C CNN
	1    9950 1200
	0    1    1    0   
$EndComp
$Comp
L resistor:resistor_0402 R?
U 1 1 5F4DAFC0
P 9500 1200
AR Path="/5C2CDB08/5F4DAFC0" Ref="R?"  Part="1" 
AR Path="/5E374CB3/5F4DAFC0" Ref="R?"  Part="1" 
AR Path="/5F4DAFC0" Ref="R10"  Part="1" 
F 0 "R10" V 9400 1200 50  0000 C CNN
F 1 "39" V 9500 1200 50  0000 C CNN
F 2 "kicad_pcb:R_0402_1005Metric" V 9400 1000 50  0001 C CNN
F 3 "" H 9500 1200 50  0000 C CNN
	1    9500 1200
	0    -1   1    0   
$EndComp
Wire Wire Line
	9250 1200 8900 1200
$Comp
L misc:testpoint_1mm TP?
U 1 1 5F4EFBBE
P 2500 1400
AR Path="/5BE20C19/5F4EFBBE" Ref="TP?"  Part="1" 
AR Path="/5F4EFBBE" Ref="TP1"  Part="1" 
F 0 "TP1" H 2650 1200 50  0000 L CNN
F 1 "testpoint_1mm" H 2700 1200 50  0001 L CNN
F 2 "kicad_pcb:TP_0.5mm" H 2700 1300 50  0001 L CNN
F 3 "" V 2750 1400 50  0001 C CNN
	1    2500 1400
	-1   0    0    -1  
$EndComp
$Comp
L misc:testpoint_1mm TP?
U 1 1 5F502794
P 2500 1500
AR Path="/5BE20C19/5F502794" Ref="TP?"  Part="1" 
AR Path="/5F502794" Ref="TP2"  Part="1" 
F 0 "TP2" H 2650 1300 50  0000 L CNN
F 1 "testpoint_1mm" H 2700 1300 50  0001 L CNN
F 2 "kicad_pcb:TP_0.5mm" H 2700 1400 50  0001 L CNN
F 3 "" V 2750 1500 50  0001 C CNN
	1    2500 1500
	-1   0    0    -1  
$EndComp
$Comp
L misc:testpoint_1mm TP?
U 1 1 5F5054C9
P 2500 1600
AR Path="/5BE20C19/5F5054C9" Ref="TP?"  Part="1" 
AR Path="/5F5054C9" Ref="TP3"  Part="1" 
F 0 "TP3" H 2650 1400 50  0000 L CNN
F 1 "testpoint_1mm" H 2700 1400 50  0001 L CNN
F 2 "kicad_pcb:TP_0.5mm" H 2700 1500 50  0001 L CNN
F 3 "" V 2750 1600 50  0001 C CNN
	1    2500 1600
	-1   0    0    -1  
$EndComp
NoConn ~ 2100 5450
NoConn ~ 2100 5550
Text Label 3400 5250 2    50   ~ 0
CE
Wire Wire Line
	3400 5250 3100 5250
Text Label 2600 2000 0    50   ~ 0
CE
Wire Wire Line
	2600 2000 2900 2000
$Comp
L ic:CGK8Y U1
U 1 1 5F53F2E8
P 3300 3300
F 0 "U1" H 3600 3465 50  0000 C CNN
F 1 "CGK8Y" H 3600 3374 50  0000 C CNN
F 2 "kicad_pcb:SOT-23-5" H 3600 3350 50  0001 L CNN
F 3 "$PARTS/CGK8Y/lp5907.pdf" V 3550 3300 50  0001 C CNN
	1    3300 3300
	1    0    0    -1  
$EndComp
NoConn ~ 4000 3600
Text Label 2600 1100 0    50   ~ 0
FB
Wire Wire Line
	2600 1100 2900 1100
$Comp
L diode:WHDPY D2
U 1 1 5F56723B
P 1750 1350
F 0 "D2" V 1821 1071 50  0000 R CNN
F 1 "WHDPY" V 1730 1071 50  0000 R CNN
F 2 "kicad_pcb:SOT-323_SC-70" H 1900 1350 50  0001 L BNN
F 3 "$PARTS/WHDPY/BAT54_SER.pdf" H 1750 1350 50  0001 L BNN
	1    1750 1350
	0    -1   -1   0   
$EndComp
Wire Wire Line
	2900 1300 2250 1300
Wire Wire Line
	2250 1300 2250 1100
Wire Wire Line
	2900 1400 2150 1400
Wire Wire Line
	2150 1400 2150 1550
Wire Wire Line
	2150 1550 1950 1550
Text Label 2600 1300 0    50   ~ 0
RFINA
Text Label 2600 1400 0    50   ~ 0
RFINB
$Comp
L ic:368BR U7
U 1 1 5F575B55
P 7100 3000
F 0 "U7" H 7100 3050 50  0000 L CNN
F 1 "368BR" H 7500 3050 50  0000 L CNN
F 2 "kicad_pcb:SOT-353_SC-70-5" H 7750 2950 50  0001 L CNN
F 3 "$PARTS/368BR/NC7SZU04-96290.pdf" V 7350 3000 50  0001 C CNN
	1    7100 3000
	1    0    0    -1  
$EndComp
$Comp
L combined:ground #PWR?
U 1 1 5F575B5F
P 7400 3500
AR Path="/5C2CDB08/5F575B5F" Ref="#PWR?"  Part="1" 
AR Path="/5E374CB3/5F575B5F" Ref="#PWR?"  Part="1" 
AR Path="/5F575B5F" Ref="#PWR0114"  Part="1" 
F 0 "#PWR0114" H 7400 3500 50  0001 C CNN
F 1 "ground" H 7400 3430 50  0001 C CNN
F 2 "" H 7400 3500 50  0001 C CNN
F 3 "" H 7400 3500 50  0000 C CNN
	1    7400 3500
	1    0    0    -1  
$EndComp
Wire Wire Line
	7000 3200 7000 1200
Text Label 6750 1200 0    50   ~ 0
VCXO0
$Comp
L ic:368BR U6
U 1 1 5F59F90A
P 7100 1000
F 0 "U6" H 7100 1050 50  0000 L CNN
F 1 "368BR" H 7500 1050 50  0000 L CNN
F 2 "kicad_pcb:SOT-353_SC-70-5" H 7750 950 50  0001 L CNN
F 3 "$PARTS/368BR/NC7SZU04-96290.pdf" V 7350 1000 50  0001 C CNN
	1    7100 1000
	1    0    0    -1  
$EndComp
$Comp
L combined:ground #PWR?
U 1 1 5F59F914
P 7400 1500
AR Path="/5C2CDB08/5F59F914" Ref="#PWR?"  Part="1" 
AR Path="/5E374CB3/5F59F914" Ref="#PWR?"  Part="1" 
AR Path="/5F59F914" Ref="#PWR0117"  Part="1" 
F 0 "#PWR0117" H 7400 1500 50  0001 C CNN
F 1 "ground" H 7400 1430 50  0001 C CNN
F 2 "" H 7400 1500 50  0001 C CNN
F 3 "" H 7400 1500 50  0000 C CNN
	1    7400 1500
	1    0    0    -1  
$EndComp
Wire Wire Line
	7800 1200 8100 1200
Connection ~ 7000 1200
$Comp
L ic:368BR U8
U 1 1 5F5B81DE
P 8200 2000
F 0 "U8" H 8200 2050 50  0000 L CNN
F 1 "368BR" H 8550 2050 50  0000 L CNN
F 2 "kicad_pcb:SOT-353_SC-70-5" H 8850 1950 50  0001 L CNN
F 3 "$PARTS/368BR/NC7SZU04-96290.pdf" V 8450 2000 50  0001 C CNN
	1    8200 2000
	1    0    0    -1  
$EndComp
$Comp
L combined:ground #PWR?
U 1 1 5F5B81E8
P 8500 2500
AR Path="/5C2CDB08/5F5B81E8" Ref="#PWR?"  Part="1" 
AR Path="/5E374CB3/5F5B81E8" Ref="#PWR?"  Part="1" 
AR Path="/5F5B81E8" Ref="#PWR0119"  Part="1" 
F 0 "#PWR0119" H 8500 2500 50  0001 C CNN
F 1 "ground" H 8500 2430 50  0001 C CNN
F 2 "" H 8500 2500 50  0001 C CNN
F 3 "" H 8500 2500 50  0000 C CNN
	1    8500 2500
	1    0    0    -1  
$EndComp
$Comp
L connector:6BPPF P4
U 1 1 5F5B81FC
P 10300 2200
F 0 "P4" H 10401 2129 50  0000 L CNN
F 1 "6BPPF" H 10300 2350 50  0001 C CNN
F 2 "kicad_pcb:U.FL_Molex_MCRF_73412-0110_Vertical" H 10300 2350 50  0001 C CNN
F 3 "$PARTS/6BPPF/A-1JB.pdf" H 10300 2200 50  0001 C CNN
	1    10300 2200
	1    0    0    -1  
$EndComp
$Comp
L combined:ground #PWR?
U 1 1 5F5B8206
P 10300 2400
AR Path="/5C2CDB08/5F5B8206" Ref="#PWR?"  Part="1" 
AR Path="/5E374CB3/5F5B8206" Ref="#PWR?"  Part="1" 
AR Path="/5F5B8206" Ref="#PWR0121"  Part="1" 
F 0 "#PWR0121" H 10300 2400 50  0001 C CNN
F 1 "ground" H 10300 2330 50  0001 C CNN
F 2 "" H 10300 2400 50  0001 C CNN
F 3 "" H 10300 2400 50  0000 C CNN
	1    10300 2400
	1    0    0    -1  
$EndComp
$Comp
L capacitors:capacitor_0402 C?
U 1 1 5F5B8210
P 9950 2200
AR Path="/5C2CDB08/5F5B8210" Ref="C?"  Part="1" 
AR Path="/5E374CB3/5F5B8210" Ref="C?"  Part="1" 
AR Path="/5F5B8210" Ref="C3"  Part="1" 
F 0 "C3" V 9800 2200 50  0000 C CNN
F 1 "100 nF" V 10100 2200 50  0000 C CNN
F 2 "kicad_pcb:C_0402_1005Metric" H 10100 2100 50  0001 L CNN
F 3 "" H 9950 2200 50  0000 C CNN
	1    9950 2200
	0    1    1    0   
$EndComp
$Comp
L resistor:resistor_0402 R?
U 1 1 5F5B821A
P 9500 2200
AR Path="/5C2CDB08/5F5B821A" Ref="R?"  Part="1" 
AR Path="/5E374CB3/5F5B821A" Ref="R?"  Part="1" 
AR Path="/5F5B821A" Ref="R1"  Part="1" 
F 0 "R1" V 9400 2200 50  0000 C CNN
F 1 "39" V 9500 2200 50  0000 C CNN
F 2 "kicad_pcb:R_0402_1005Metric" V 9400 2000 50  0001 C CNN
F 3 "" H 9500 2200 50  0000 C CNN
	1    9500 2200
	0    -1   1    0   
$EndComp
Wire Wire Line
	9250 2200 8900 2200
Wire Wire Line
	7800 2200 8100 2200
Wire Wire Line
	7800 2200 7800 1200
Connection ~ 7800 1200
$Comp
L ic:368BR U9
U 1 1 5F5C9158
P 8200 3000
F 0 "U9" H 8200 3050 50  0000 L CNN
F 1 "368BR" H 8550 3050 50  0000 L CNN
F 2 "kicad_pcb:SOT-353_SC-70-5" H 8850 2950 50  0001 L CNN
F 3 "$PARTS/368BR/NC7SZU04-96290.pdf" V 8450 3000 50  0001 C CNN
	1    8200 3000
	1    0    0    -1  
$EndComp
$Comp
L combined:ground #PWR?
U 1 1 5F5C9162
P 8500 3500
AR Path="/5C2CDB08/5F5C9162" Ref="#PWR?"  Part="1" 
AR Path="/5E374CB3/5F5C9162" Ref="#PWR?"  Part="1" 
AR Path="/5F5C9162" Ref="#PWR0123"  Part="1" 
F 0 "#PWR0123" H 8500 3500 50  0001 C CNN
F 1 "ground" H 8500 3430 50  0001 C CNN
F 2 "" H 8500 3500 50  0001 C CNN
F 3 "" H 8500 3500 50  0000 C CNN
	1    8500 3500
	1    0    0    -1  
$EndComp
$Comp
L connector:6BPPF P5
U 1 1 5F5C9176
P 10300 3200
F 0 "P5" H 10401 3129 50  0000 L CNN
F 1 "6BPPF" H 10300 3350 50  0001 C CNN
F 2 "kicad_pcb:U.FL_Molex_MCRF_73412-0110_Vertical" H 10300 3350 50  0001 C CNN
F 3 "$PARTS/6BPPF/A-1JB.pdf" H 10300 3200 50  0001 C CNN
	1    10300 3200
	1    0    0    -1  
$EndComp
$Comp
L combined:ground #PWR?
U 1 1 5F5C9180
P 10300 3400
AR Path="/5C2CDB08/5F5C9180" Ref="#PWR?"  Part="1" 
AR Path="/5E374CB3/5F5C9180" Ref="#PWR?"  Part="1" 
AR Path="/5F5C9180" Ref="#PWR0141"  Part="1" 
F 0 "#PWR0141" H 10300 3400 50  0001 C CNN
F 1 "ground" H 10300 3330 50  0001 C CNN
F 2 "" H 10300 3400 50  0001 C CNN
F 3 "" H 10300 3400 50  0000 C CNN
	1    10300 3400
	1    0    0    -1  
$EndComp
$Comp
L capacitors:capacitor_0402 C?
U 1 1 5F5C918A
P 9950 3200
AR Path="/5C2CDB08/5F5C918A" Ref="C?"  Part="1" 
AR Path="/5E374CB3/5F5C918A" Ref="C?"  Part="1" 
AR Path="/5F5C918A" Ref="C4"  Part="1" 
F 0 "C4" V 9800 3200 50  0000 C CNN
F 1 "100 nF" V 10100 3200 50  0000 C CNN
F 2 "kicad_pcb:C_0402_1005Metric" H 10100 3100 50  0001 L CNN
F 3 "" H 9950 3200 50  0000 C CNN
	1    9950 3200
	0    1    1    0   
$EndComp
$Comp
L resistor:resistor_0402 R?
U 1 1 5F5C9194
P 9500 3200
AR Path="/5C2CDB08/5F5C9194" Ref="R?"  Part="1" 
AR Path="/5E374CB3/5F5C9194" Ref="R?"  Part="1" 
AR Path="/5F5C9194" Ref="R4"  Part="1" 
F 0 "R4" V 9400 3200 50  0000 C CNN
F 1 "39" V 9500 3200 50  0000 C CNN
F 2 "kicad_pcb:R_0402_1005Metric" V 9400 3000 50  0001 C CNN
F 3 "" H 9500 3200 50  0000 C CNN
	1    9500 3200
	0    -1   1    0   
$EndComp
Wire Wire Line
	9250 3200 8900 3200
Wire Wire Line
	7800 3200 8100 3200
$Comp
L ic:368BR U10
U 1 1 5F5C91A0
P 8200 4000
F 0 "U10" H 8200 4050 50  0000 L CNN
F 1 "368BR" H 8550 4050 50  0000 L CNN
F 2 "kicad_pcb:SOT-353_SC-70-5" H 8850 3950 50  0001 L CNN
F 3 "$PARTS/368BR/NC7SZU04-96290.pdf" V 8450 4000 50  0001 C CNN
	1    8200 4000
	1    0    0    -1  
$EndComp
$Comp
L combined:ground #PWR?
U 1 1 5F5C91AA
P 8500 4500
AR Path="/5C2CDB08/5F5C91AA" Ref="#PWR?"  Part="1" 
AR Path="/5E374CB3/5F5C91AA" Ref="#PWR?"  Part="1" 
AR Path="/5F5C91AA" Ref="#PWR0142"  Part="1" 
F 0 "#PWR0142" H 8500 4500 50  0001 C CNN
F 1 "ground" H 8500 4430 50  0001 C CNN
F 2 "" H 8500 4500 50  0001 C CNN
F 3 "" H 8500 4500 50  0000 C CNN
	1    8500 4500
	1    0    0    -1  
$EndComp
$Comp
L connector:6BPPF P6
U 1 1 5F5C91BE
P 10300 4200
F 0 "P6" H 10401 4129 50  0000 L CNN
F 1 "6BPPF" H 10300 4350 50  0001 C CNN
F 2 "kicad_pcb:U.FL_Molex_MCRF_73412-0110_Vertical" H 10300 4350 50  0001 C CNN
F 3 "$PARTS/6BPPF/A-1JB.pdf" H 10300 4200 50  0001 C CNN
	1    10300 4200
	1    0    0    -1  
$EndComp
$Comp
L combined:ground #PWR?
U 1 1 5F5C91C8
P 10300 4400
AR Path="/5C2CDB08/5F5C91C8" Ref="#PWR?"  Part="1" 
AR Path="/5E374CB3/5F5C91C8" Ref="#PWR?"  Part="1" 
AR Path="/5F5C91C8" Ref="#PWR0144"  Part="1" 
F 0 "#PWR0144" H 10300 4400 50  0001 C CNN
F 1 "ground" H 10300 4330 50  0001 C CNN
F 2 "" H 10300 4400 50  0001 C CNN
F 3 "" H 10300 4400 50  0000 C CNN
	1    10300 4400
	1    0    0    -1  
$EndComp
$Comp
L capacitors:capacitor_0402 C?
U 1 1 5F5C91D2
P 9950 4200
AR Path="/5C2CDB08/5F5C91D2" Ref="C?"  Part="1" 
AR Path="/5E374CB3/5F5C91D2" Ref="C?"  Part="1" 
AR Path="/5F5C91D2" Ref="C5"  Part="1" 
F 0 "C5" V 9800 4200 50  0000 C CNN
F 1 "100 nF" V 10100 4200 50  0000 C CNN
F 2 "kicad_pcb:C_0402_1005Metric" H 10100 4100 50  0001 L CNN
F 3 "" H 9950 4200 50  0000 C CNN
	1    9950 4200
	0    1    1    0   
$EndComp
$Comp
L resistor:resistor_0402 R?
U 1 1 5F5C91DC
P 9500 4200
AR Path="/5C2CDB08/5F5C91DC" Ref="R?"  Part="1" 
AR Path="/5E374CB3/5F5C91DC" Ref="R?"  Part="1" 
AR Path="/5F5C91DC" Ref="R5"  Part="1" 
F 0 "R5" V 9400 4200 50  0000 C CNN
F 1 "39" V 9500 4200 50  0000 C CNN
F 2 "kicad_pcb:R_0402_1005Metric" V 9400 4000 50  0001 C CNN
F 3 "" H 9500 4200 50  0000 C CNN
	1    9500 4200
	0    -1   1    0   
$EndComp
Wire Wire Line
	9250 4200 8900 4200
Wire Wire Line
	7800 4200 8100 4200
Wire Wire Line
	7800 4200 7800 3200
Connection ~ 7800 3200
$Comp
L ic:368BR U11
U 1 1 5F5EB4B9
P 8200 5000
F 0 "U11" H 8200 5050 50  0000 L CNN
F 1 "368BR" H 8550 5050 50  0000 L CNN
F 2 "kicad_pcb:SOT-353_SC-70-5" H 8850 4950 50  0001 L CNN
F 3 "$PARTS/368BR/NC7SZU04-96290.pdf" V 8450 5000 50  0001 C CNN
	1    8200 5000
	1    0    0    -1  
$EndComp
$Comp
L combined:ground #PWR?
U 1 1 5F5EB4C3
P 8500 5500
AR Path="/5C2CDB08/5F5EB4C3" Ref="#PWR?"  Part="1" 
AR Path="/5E374CB3/5F5EB4C3" Ref="#PWR?"  Part="1" 
AR Path="/5F5EB4C3" Ref="#PWR0145"  Part="1" 
F 0 "#PWR0145" H 8500 5500 50  0001 C CNN
F 1 "ground" H 8500 5430 50  0001 C CNN
F 2 "" H 8500 5500 50  0001 C CNN
F 3 "" H 8500 5500 50  0000 C CNN
	1    8500 5500
	1    0    0    -1  
$EndComp
$Comp
L resistor:resistor_0402 R?
U 1 1 5F5EB4D7
P 9500 5200
AR Path="/5C2CDB08/5F5EB4D7" Ref="R?"  Part="1" 
AR Path="/5E374CB3/5F5EB4D7" Ref="R?"  Part="1" 
AR Path="/5F5EB4D7" Ref="R6"  Part="1" 
F 0 "R6" V 9400 5200 50  0000 C CNN
F 1 "39" V 9500 5200 50  0000 C CNN
F 2 "kicad_pcb:R_0402_1005Metric" V 9400 5000 50  0001 C CNN
F 3 "" H 9500 5200 50  0000 C CNN
	1    9500 5200
	0    -1   1    0   
$EndComp
Wire Wire Line
	9250 5200 8900 5200
Wire Wire Line
	8100 5200 7800 5200
Wire Wire Line
	7800 5200 7800 4200
Connection ~ 7800 4200
Text Label 10050 5200 2    50   ~ 0
FB
Wire Wire Line
	10050 5200 9750 5200
$Comp
L power:+3.3VA #PWR0110
U 1 1 5F66FABE
P 7400 900
F 0 "#PWR0110" H 7400 750 50  0001 C CNN
F 1 "+3.3VA" H 7415 1073 50  0000 C CNN
F 2 "" H 7400 900 50  0001 C CNN
F 3 "" H 7400 900 50  0001 C CNN
	1    7400 900 
	1    0    0    -1  
$EndComp
$Comp
L power:+3.3VA #PWR0115
U 1 1 5F673959
P 5850 1150
F 0 "#PWR0115" H 5850 1000 50  0001 C CNN
F 1 "+3.3VA" H 5865 1323 50  0000 C CNN
F 2 "" H 5850 1150 50  0001 C CNN
F 3 "" H 5850 1150 50  0001 C CNN
	1    5850 1150
	1    0    0    -1  
$EndComp
$Comp
L power:+3.3VA #PWR0118
U 1 1 5F67A476
P 8500 900
F 0 "#PWR0118" H 8500 750 50  0001 C CNN
F 1 "+3.3VA" H 8515 1073 50  0000 C CNN
F 2 "" H 8500 900 50  0001 C CNN
F 3 "" H 8500 900 50  0001 C CNN
	1    8500 900 
	1    0    0    -1  
$EndComp
$Comp
L power:+3.3VA #PWR0120
U 1 1 5F67A9C0
P 8500 1900
F 0 "#PWR0120" H 8500 1750 50  0001 C CNN
F 1 "+3.3VA" H 8515 2073 50  0000 C CNN
F 2 "" H 8500 1900 50  0001 C CNN
F 3 "" H 8500 1900 50  0001 C CNN
	1    8500 1900
	1    0    0    -1  
$EndComp
$Comp
L power:+3.3VA #PWR0136
U 1 1 5F67AF5A
P 8500 2900
F 0 "#PWR0136" H 8500 2750 50  0001 C CNN
F 1 "+3.3VA" H 8515 3073 50  0000 C CNN
F 2 "" H 8500 2900 50  0001 C CNN
F 3 "" H 8500 2900 50  0001 C CNN
	1    8500 2900
	1    0    0    -1  
$EndComp
$Comp
L power:+3.3VA #PWR0140
U 1 1 5F67B4B7
P 7400 2900
F 0 "#PWR0140" H 7400 2750 50  0001 C CNN
F 1 "+3.3VA" H 7415 3073 50  0000 C CNN
F 2 "" H 7400 2900 50  0001 C CNN
F 3 "" H 7400 2900 50  0001 C CNN
	1    7400 2900
	1    0    0    -1  
$EndComp
$Comp
L power:+3.3VA #PWR0143
U 1 1 5F67BA1A
P 8500 3900
F 0 "#PWR0143" H 8500 3750 50  0001 C CNN
F 1 "+3.3VA" H 8515 4073 50  0000 C CNN
F 2 "" H 8500 3900 50  0001 C CNN
F 3 "" H 8500 3900 50  0001 C CNN
	1    8500 3900
	1    0    0    -1  
$EndComp
$Comp
L power:+3.3VA #PWR0146
U 1 1 5F67BFD3
P 8500 4900
F 0 "#PWR0146" H 8500 4750 50  0001 C CNN
F 1 "+3.3VA" H 8515 5073 50  0000 C CNN
F 2 "" H 8500 4900 50  0001 C CNN
F 3 "" H 8500 4900 50  0001 C CNN
	1    8500 4900
	1    0    0    -1  
$EndComp
$Comp
L power:+3.3VA #PWR0153
U 1 1 5F68A704
P 6500 3800
F 0 "#PWR0153" H 6500 3650 50  0001 C CNN
F 1 "+3.3VA" H 6515 3973 50  0000 C CNN
F 2 "" H 6500 3800 50  0001 C CNN
F 3 "" H 6500 3800 50  0001 C CNN
	1    6500 3800
	1    0    0    -1  
$EndComp
$Comp
L capacitors:capacitor_0402 C?
U 1 1 5F68B736
P 6500 4000
AR Path="/5C2CDB08/5F68B736" Ref="C?"  Part="1" 
AR Path="/5E374CB3/5F68B736" Ref="C?"  Part="1" 
AR Path="/5F68B736" Ref="C9"  Part="1" 
F 0 "C9" V 6350 4000 50  0000 C CNN
F 1 "100 nF" V 6650 4000 50  0000 C CNN
F 2 "kicad_pcb:C_0402_1005Metric" H 6650 3900 50  0001 L CNN
F 3 "" H 6500 4000 50  0000 C CNN
	1    6500 4000
	1    0    0    -1  
$EndComp
$Comp
L combined:ground #PWR?
U 1 1 5F6935EA
P 6500 4200
AR Path="/5C2CDB08/5F6935EA" Ref="#PWR?"  Part="1" 
AR Path="/5E374CB3/5F6935EA" Ref="#PWR?"  Part="1" 
AR Path="/5F6935EA" Ref="#PWR0154"  Part="1" 
F 0 "#PWR0154" H 6500 4200 50  0001 C CNN
F 1 "ground" H 6500 4130 50  0001 C CNN
F 2 "" H 6500 4200 50  0001 C CNN
F 3 "" H 6500 4200 50  0000 C CNN
	1    6500 4200
	1    0    0    -1  
$EndComp
$Comp
L power:+3.3VA #PWR0155
U 1 1 5F696A56
P 6100 3800
F 0 "#PWR0155" H 6100 3650 50  0001 C CNN
F 1 "+3.3VA" H 6115 3973 50  0000 C CNN
F 2 "" H 6100 3800 50  0001 C CNN
F 3 "" H 6100 3800 50  0001 C CNN
	1    6100 3800
	1    0    0    -1  
$EndComp
$Comp
L capacitors:capacitor_0402 C?
U 1 1 5F696A60
P 6100 4000
AR Path="/5C2CDB08/5F696A60" Ref="C?"  Part="1" 
AR Path="/5E374CB3/5F696A60" Ref="C?"  Part="1" 
AR Path="/5F696A60" Ref="C8"  Part="1" 
F 0 "C8" V 5950 4000 50  0000 C CNN
F 1 "100 nF" V 6250 4000 50  0000 C CNN
F 2 "kicad_pcb:C_0402_1005Metric" H 6250 3900 50  0001 L CNN
F 3 "" H 6100 4000 50  0000 C CNN
	1    6100 4000
	1    0    0    -1  
$EndComp
$Comp
L combined:ground #PWR?
U 1 1 5F696A6A
P 6100 4200
AR Path="/5C2CDB08/5F696A6A" Ref="#PWR?"  Part="1" 
AR Path="/5E374CB3/5F696A6A" Ref="#PWR?"  Part="1" 
AR Path="/5F696A6A" Ref="#PWR0156"  Part="1" 
F 0 "#PWR0156" H 6100 4200 50  0001 C CNN
F 1 "ground" H 6100 4130 50  0001 C CNN
F 2 "" H 6100 4200 50  0001 C CNN
F 3 "" H 6100 4200 50  0000 C CNN
	1    6100 4200
	1    0    0    -1  
$EndComp
$Comp
L power:+3.3VA #PWR0157
U 1 1 5F6A1E71
P 5700 3800
F 0 "#PWR0157" H 5700 3650 50  0001 C CNN
F 1 "+3.3VA" H 5715 3973 50  0000 C CNN
F 2 "" H 5700 3800 50  0001 C CNN
F 3 "" H 5700 3800 50  0001 C CNN
	1    5700 3800
	1    0    0    -1  
$EndComp
$Comp
L capacitors:capacitor_0402 C?
U 1 1 5F6A1E7B
P 5700 4000
AR Path="/5C2CDB08/5F6A1E7B" Ref="C?"  Part="1" 
AR Path="/5E374CB3/5F6A1E7B" Ref="C?"  Part="1" 
AR Path="/5F6A1E7B" Ref="C7"  Part="1" 
F 0 "C7" V 5550 4000 50  0000 C CNN
F 1 "100 nF" V 5850 4000 50  0000 C CNN
F 2 "kicad_pcb:C_0402_1005Metric" H 5850 3900 50  0001 L CNN
F 3 "" H 5700 4000 50  0000 C CNN
	1    5700 4000
	1    0    0    -1  
$EndComp
$Comp
L combined:ground #PWR?
U 1 1 5F6A1E85
P 5700 4200
AR Path="/5C2CDB08/5F6A1E85" Ref="#PWR?"  Part="1" 
AR Path="/5E374CB3/5F6A1E85" Ref="#PWR?"  Part="1" 
AR Path="/5F6A1E85" Ref="#PWR0158"  Part="1" 
F 0 "#PWR0158" H 5700 4200 50  0001 C CNN
F 1 "ground" H 5700 4130 50  0001 C CNN
F 2 "" H 5700 4200 50  0001 C CNN
F 3 "" H 5700 4200 50  0000 C CNN
	1    5700 4200
	1    0    0    -1  
$EndComp
$Comp
L power:+3.3VA #PWR0159
U 1 1 5F6A1E8F
P 5300 3800
F 0 "#PWR0159" H 5300 3650 50  0001 C CNN
F 1 "+3.3VA" H 5315 3973 50  0000 C CNN
F 2 "" H 5300 3800 50  0001 C CNN
F 3 "" H 5300 3800 50  0001 C CNN
	1    5300 3800
	1    0    0    -1  
$EndComp
$Comp
L capacitors:capacitor_0402 C?
U 1 1 5F6A1E99
P 5300 4000
AR Path="/5C2CDB08/5F6A1E99" Ref="C?"  Part="1" 
AR Path="/5E374CB3/5F6A1E99" Ref="C?"  Part="1" 
AR Path="/5F6A1E99" Ref="C6"  Part="1" 
F 0 "C6" V 5150 4000 50  0000 C CNN
F 1 "100 nF" V 5450 4000 50  0000 C CNN
F 2 "kicad_pcb:C_0402_1005Metric" H 5450 3900 50  0001 L CNN
F 3 "" H 5300 4000 50  0000 C CNN
	1    5300 4000
	1    0    0    -1  
$EndComp
$Comp
L combined:ground #PWR?
U 1 1 5F6A1EA3
P 5300 4200
AR Path="/5C2CDB08/5F6A1EA3" Ref="#PWR?"  Part="1" 
AR Path="/5E374CB3/5F6A1EA3" Ref="#PWR?"  Part="1" 
AR Path="/5F6A1EA3" Ref="#PWR0160"  Part="1" 
F 0 "#PWR0160" H 5300 4200 50  0001 C CNN
F 1 "ground" H 5300 4130 50  0001 C CNN
F 2 "" H 5300 4200 50  0001 C CNN
F 3 "" H 5300 4200 50  0000 C CNN
	1    5300 4200
	1    0    0    -1  
$EndComp
$Comp
L capacitors:GJB4W C14
U 1 1 5F6B325A
P 5550 5000
F 0 "C14" H 5550 5207 50  0000 C CNN
F 1 "GJB4W" H 5350 5100 50  0001 L BNN
F 2 "kicad_pcb:NFM18P6V" H 5400 5150 50  0001 L BNN
F 3 "$PARTS/GJB4W/nfm18ps.pdf" H 5550 5050 50  0001 L BNN
	1    5550 5000
	1    0    0    -1  
$EndComp
$Comp
L power:+3.3VA #PWR0161
U 1 1 5F6B4506
P 5850 4950
F 0 "#PWR0161" H 5850 4800 50  0001 C CNN
F 1 "+3.3VA" H 5865 5123 50  0000 C CNN
F 2 "" H 5850 4950 50  0001 C CNN
F 3 "" H 5850 4950 50  0001 C CNN
	1    5850 4950
	1    0    0    -1  
$EndComp
Wire Wire Line
	5750 5000 5850 5000
Wire Wire Line
	5850 5000 5850 4950
$Comp
L combined:ground #PWR?
U 1 1 5F6B6D8C
P 5550 5150
AR Path="/5C2CDB08/5F6B6D8C" Ref="#PWR?"  Part="1" 
AR Path="/5E374CB3/5F6B6D8C" Ref="#PWR?"  Part="1" 
AR Path="/5F6B6D8C" Ref="#PWR0162"  Part="1" 
F 0 "#PWR0162" H 5550 5150 50  0001 C CNN
F 1 "ground" H 5550 5080 50  0001 C CNN
F 2 "" H 5550 5150 50  0001 C CNN
F 3 "" H 5550 5150 50  0000 C CNN
	1    5550 5150
	1    0    0    -1  
$EndComp
$Comp
L power:+3V3 #PWR?
U 1 1 5F6C4BE4
P 5000 4950
AR Path="/5C2CDB08/5F6C4BE4" Ref="#PWR?"  Part="1" 
AR Path="/5F6C4BE4" Ref="#PWR0163"  Part="1" 
F 0 "#PWR0163" H 5000 4800 50  0001 C CNN
F 1 "+3V3" H 5015 5123 50  0000 C CNN
F 2 "" H 5000 4950 50  0001 C CNN
F 3 "" H 5000 4950 50  0001 C CNN
	1    5000 4950
	1    0    0    -1  
$EndComp
Wire Wire Line
	5150 5000 5000 5000
Wire Wire Line
	5000 5000 5000 4950
$Comp
L power:PWR_FLAG #FLG?
U 1 1 5F6D075F
P 5850 5000
AR Path="/5C2CDB08/5F6D075F" Ref="#FLG?"  Part="1" 
AR Path="/5E374CB3/5F6D075F" Ref="#FLG?"  Part="1" 
AR Path="/5F6D075F" Ref="#FLG0101"  Part="1" 
F 0 "#FLG0101" H 5850 5075 50  0001 C CNN
F 1 "PWR_FLAG" V 5850 5300 50  0000 C CNN
F 2 "" H 5850 5000 50  0001 C CNN
F 3 "~" H 5850 5000 50  0001 C CNN
	1    5850 5000
	0    1    1    0   
$EndComp
Connection ~ 5850 5000
$Comp
L capacitors:capacitor_0402 C?
U 1 1 5F719FE8
P 1750 1750
AR Path="/5C2CDB08/5F719FE8" Ref="C?"  Part="1" 
AR Path="/5E374CB3/5F719FE8" Ref="C?"  Part="1" 
AR Path="/5F719FE8" Ref="C17"  Part="1" 
F 0 "C17" V 1600 1750 50  0000 C CNN
F 1 "100 nF" V 1900 1750 50  0000 C CNN
F 2 "kicad_pcb:C_0402_1005Metric" H 1900 1650 50  0001 L CNN
F 3 "" H 1750 1750 50  0000 C CNN
	1    1750 1750
	1    0    0    1   
$EndComp
Wire Wire Line
	1850 1100 2250 1100
$Comp
L combined:ground #PWR?
U 1 1 5F732F4A
P 1750 1950
AR Path="/5C2CDB08/5F732F4A" Ref="#PWR?"  Part="1" 
AR Path="/5E374CB3/5F732F4A" Ref="#PWR?"  Part="1" 
AR Path="/5F732F4A" Ref="#PWR0164"  Part="1" 
F 0 "#PWR0164" H 1750 1950 50  0001 C CNN
F 1 "ground" H 1750 1880 50  0001 C CNN
F 2 "" H 1750 1950 50  0001 C CNN
F 3 "" H 1750 1950 50  0000 C CNN
	1    1750 1950
	1    0    0    -1  
$EndComp
Wire Wire Line
	1950 1550 1750 1550
Connection ~ 1950 1550
Connection ~ 1750 1550
$Comp
L capacitors:capacitor_0402 C?
U 1 1 5F737D94
P 1550 1100
AR Path="/5C2CDB08/5F737D94" Ref="C?"  Part="1" 
AR Path="/5E374CB3/5F737D94" Ref="C?"  Part="1" 
AR Path="/5F737D94" Ref="C16"  Part="1" 
F 0 "C16" V 1400 1100 50  0000 C CNN
F 1 "100 nF" V 1700 1100 50  0000 C CNN
F 2 "kicad_pcb:C_0402_1005Metric" H 1700 1000 50  0001 L CNN
F 3 "" H 1550 1100 50  0000 C CNN
	1    1550 1100
	0    -1   1    0   
$EndComp
Wire Wire Line
	1850 1100 1750 1100
Connection ~ 1850 1100
$Comp
L resistor:resistor_0402 R?
U 1 1 5F73B2C5
P 1100 1100
AR Path="/5C2CDB08/5F73B2C5" Ref="R?"  Part="1" 
AR Path="/5E374CB3/5F73B2C5" Ref="R?"  Part="1" 
AR Path="/5F73B2C5" Ref="R11"  Part="1" 
F 0 "R11" V 1000 1100 50  0000 C CNN
F 1 "499" V 1100 1100 50  0000 C CNN
F 2 "kicad_pcb:R_0402_1005Metric" V 1000 900 50  0001 C CNN
F 3 "" H 1100 1100 50  0000 C CNN
	1    1100 1100
	0    -1   1    0   
$EndComp
$Comp
L connector:6BPPF P8
U 1 1 5F744B3F
P 700 1100
F 0 "P8" H 801 1029 50  0000 L CNN
F 1 "6BPPF" H 700 1250 50  0001 C CNN
F 2 "kicad_pcb:U.FL_Molex_MCRF_73412-0110_Vertical" H 700 1250 50  0001 C CNN
F 3 "$PARTS/6BPPF/A-1JB.pdf" H 700 1100 50  0001 C CNN
	1    700  1100
	-1   0    0    -1  
$EndComp
$Comp
L combined:ground #PWR?
U 1 1 5F744B49
P 700 1300
AR Path="/5C2CDB08/5F744B49" Ref="#PWR?"  Part="1" 
AR Path="/5E374CB3/5F744B49" Ref="#PWR?"  Part="1" 
AR Path="/5F744B49" Ref="#PWR0165"  Part="1" 
F 0 "#PWR0165" H 700 1300 50  0001 C CNN
F 1 "ground" H 700 1230 50  0001 C CNN
F 2 "" H 700 1300 50  0001 C CNN
F 3 "" H 700 1300 50  0000 C CNN
	1    700  1300
	-1   0    0    -1  
$EndComp
$Comp
L connector:6BPPF P9
U 1 1 5F755C17
P 700 1550
F 0 "P9" H 801 1479 50  0000 L CNN
F 1 "6BPPF" H 700 1700 50  0001 C CNN
F 2 "kicad_pcb:U.FL_Molex_MCRF_73412-0110_Vertical" H 700 1700 50  0001 C CNN
F 3 "$PARTS/6BPPF/A-1JB.pdf" H 700 1550 50  0001 C CNN
	1    700  1550
	-1   0    0    -1  
$EndComp
$Comp
L combined:ground #PWR?
U 1 1 5F755C21
P 700 1750
AR Path="/5C2CDB08/5F755C21" Ref="#PWR?"  Part="1" 
AR Path="/5E374CB3/5F755C21" Ref="#PWR?"  Part="1" 
AR Path="/5F755C21" Ref="#PWR0166"  Part="1" 
F 0 "#PWR0166" H 700 1750 50  0001 C CNN
F 1 "ground" H 700 1680 50  0001 C CNN
F 2 "" H 700 1750 50  0001 C CNN
F 3 "" H 700 1750 50  0000 C CNN
	1    700  1750
	-1   0    0    -1  
$EndComp
Connection ~ 850  1100
Wire Wire Line
	850  1100 850  1550
Wire Wire Line
	4400 1400 4100 1400
Connection ~ 4400 1400
Text Label 3400 5650 2    50   ~ 0
SWDIO
Text Label 3350 5750 2    50   ~ 0
SWCLK
$Comp
L capacitors:capacitor_0402 C?
U 1 1 5F79E4EB
P 4600 3600
AR Path="/5C2CDB08/5F79E4EB" Ref="C?"  Part="1" 
AR Path="/5E374CB3/5F79E4EB" Ref="C?"  Part="1" 
AR Path="/5F79E4EB" Ref="C18"  Part="1" 
F 0 "C18" V 4450 3600 50  0000 C CNN
F 1 "1 uF" V 4750 3600 50  0000 C CNN
F 2 "kicad_pcb:C_0402_1005Metric" H 4750 3500 50  0001 L CNN
F 3 "" H 4600 3600 50  0000 C CNN
	1    4600 3600
	1    0    0    -1  
$EndComp
Connection ~ 4600 3400
Wire Wire Line
	4600 3400 5000 3400
Connection ~ 4600 3800
Wire Wire Line
	4600 3800 5000 3800
$Comp
L capacitors:capacitor_0402 C?
U 1 1 5F7AD220
P 5000 3600
AR Path="/5C2CDB08/5F7AD220" Ref="C?"  Part="1" 
AR Path="/5E374CB3/5F7AD220" Ref="C?"  Part="1" 
AR Path="/5F7AD220" Ref="C19"  Part="1" 
F 0 "C19" V 4850 3600 50  0000 C CNN
F 1 "1 uF" V 5150 3600 50  0000 C CNN
F 2 "kicad_pcb:C_0402_1005Metric" H 5150 3500 50  0001 L CNN
F 3 "" H 5000 3600 50  0000 C CNN
	1    5000 3600
	1    0    0    -1  
$EndComp
Connection ~ 5000 3400
Connection ~ 5000 3800
Text Notes 4550 1050 0    50   ~ 0
Loop filter:\n3.8 mA CP\n40 Hz BW
$Comp
L power:+3.3VA #PWR0147
U 1 1 5F8248FA
P 6900 3800
F 0 "#PWR0147" H 6900 3650 50  0001 C CNN
F 1 "+3.3VA" H 6915 3973 50  0000 C CNN
F 2 "" H 6900 3800 50  0001 C CNN
F 3 "" H 6900 3800 50  0001 C CNN
	1    6900 3800
	1    0    0    -1  
$EndComp
$Comp
L capacitors:capacitor_0402 C?
U 1 1 5F824904
P 6900 4000
AR Path="/5C2CDB08/5F824904" Ref="C?"  Part="1" 
AR Path="/5E374CB3/5F824904" Ref="C?"  Part="1" 
AR Path="/5F824904" Ref="C20"  Part="1" 
F 0 "C20" V 6750 4000 50  0000 C CNN
F 1 "100 nF" V 7050 4000 50  0000 C CNN
F 2 "kicad_pcb:C_0402_1005Metric" H 7050 3900 50  0001 L CNN
F 3 "" H 6900 4000 50  0000 C CNN
	1    6900 4000
	1    0    0    -1  
$EndComp
$Comp
L combined:ground #PWR?
U 1 1 5F82490E
P 6900 4200
AR Path="/5C2CDB08/5F82490E" Ref="#PWR?"  Part="1" 
AR Path="/5E374CB3/5F82490E" Ref="#PWR?"  Part="1" 
AR Path="/5F82490E" Ref="#PWR0148"  Part="1" 
F 0 "#PWR0148" H 6900 4200 50  0001 C CNN
F 1 "ground" H 6900 4130 50  0001 C CNN
F 2 "" H 6900 4200 50  0001 C CNN
F 3 "" H 6900 4200 50  0000 C CNN
	1    6900 4200
	1    0    0    -1  
$EndComp
Text Notes 6050 1750 0    50   ~ 0
25 PPM/V : 250 Hz/V
Wire Wire Line
	4400 1400 4950 1400
Connection ~ 4950 1400
Wire Wire Line
	4950 1400 5050 1400
Text Label 4100 1800 0    50   ~ 0
MUX
Text Label 3400 5050 2    50   ~ 0
MUX
Wire Wire Line
	3400 5050 3100 5050
$EndSCHEMATC
